<svg width="20" height="20" viewBox="0 0 20 20" fill="none" xmlns="http://www.w3.org/2000/svg">
<path d="M18.3019 1.60875C17.6117 0.917296 16.7802 0.571504 15.8079 0.571504V0.571289H4.04157C3.0693 0.571289 2.23779 0.917167 1.54731 1.60862C0.856959 2.30021 0.511719 3.13304 0.511719 4.10686V15.8922C0.511719 16.866 0.856959 17.6989 1.54731 18.3902C2.23779 19.0818 3.06934 19.4276 4.04161 19.4276H6.28469C6.14564 18.1676 6.17423 17.128 6.37042 16.3097L7.5715 11.2274C7.3754 10.8262 7.27726 10.3313 7.27726 9.74209C7.27726 9.06289 7.45091 8.49191 7.7983 8.0296C8.14543 7.56706 8.56833 7.33586 9.06674 7.33586C9.4671 7.33586 9.7756 7.46881 9.99205 7.73471C10.2085 8.00083 10.3169 8.33432 10.3169 8.73537C10.3169 8.98897 10.2719 9.29392 10.1821 9.64981C10.0921 10.0061 9.97179 10.4234 9.82059 10.9022C9.66943 11.381 9.56121 11.7593 9.49578 12.0375C9.38146 12.5287 9.47535 12.9521 9.7777 13.3083C10.08 13.6641 10.4763 13.8424 10.9667 13.8424C11.8329 13.8424 12.5416 13.3595 13.0934 12.3937C13.6449 11.4281 13.9205 10.2577 13.9205 8.8829C13.9205 7.82725 13.5794 6.96775 12.8968 6.30494C12.2148 5.64199 11.2649 5.31047 10.0473 5.31047C8.68299 5.31047 7.57773 5.74639 6.73193 6.61792C5.88617 7.48954 5.46327 8.53925 5.46327 9.76681C5.46327 10.4869 5.66766 11.1008 6.07618 11.6083C6.21501 11.7637 6.26004 11.9358 6.21098 12.1241C6.17006 12.2633 6.1088 12.5129 6.02711 12.8728C5.99435 12.9876 5.9352 13.0651 5.84934 13.1062C5.76339 13.1471 5.66744 13.1471 5.56123 13.1062C4.9321 12.8444 4.45592 12.394 4.13327 11.7557C3.81056 11.1175 3.64919 10.3807 3.64919 9.5461C3.64919 9.00587 3.73707 8.46345 3.91278 7.91943C4.08849 7.37508 4.36019 6.85132 4.72784 6.34806C5.09549 5.8446 5.53458 5.39655 6.04535 5.00364C6.55596 4.61098 7.18119 4.29791 7.92061 4.06464C8.65994 3.83142 9.45474 3.71476 10.3042 3.71476C11.1706 3.71476 11.9754 3.8644 12.719 4.16306C13.4625 4.46169 14.0856 4.85856 14.5884 5.35368C15.0908 5.84885 15.4851 6.41763 15.7709 7.06016C16.057 7.70247 16.2 8.36756 16.2 9.05493C16.2 10.9047 15.7322 12.433 14.7967 13.6401C13.8611 14.8473 12.6538 15.4511 11.175 15.4511C10.6843 15.4511 10.2251 15.3364 9.79595 15.1073C9.36704 14.8782 9.06674 14.6041 8.89511 14.2848C8.53562 15.7171 8.31912 16.5721 8.24554 16.8504C8.05764 17.5707 7.61641 18.4299 6.92189 19.4284H15.8078C16.78 19.4284 17.6116 19.0826 18.3018 18.3911C18.9923 17.6995 19.3375 16.8666 19.3375 15.8928V4.10695C19.3375 3.13321 18.9923 2.30034 18.3019 1.60875Z" fill="white"/>
</svg>
